…
Use `map2` to estimate proportion of unsolved homicides in all cities
and pull estimate and 95% CI into a tibble.

``` r
all_hom <-
  post_nest %>%
  mutate(prop_test = map2(n_unsolved, n_homicide, ~prop.test(.x,.y, conf.level = 0.95) %>%
                            broom::tidy())) %>% 
  unnest(prop_test) %>%
  select(city_state, estimate, "ci_lower" = conf.low, "ci_upper" = conf.high)

all_hom
```

    ## # A tibble: 50 × 4
    ##    city_state      estimate ci_lower ci_upper
    ##    <chr>              <dbl>    <dbl>    <dbl>
    ##  1 Albuquerque, NM    0.386    0.337    0.438
    ##  2 Atlanta, GA        0.383    0.353    0.415
    ##  3 Baltimore, MD      0.646    0.628    0.663
    ##  4 Baton Rouge, LA    0.462    0.414    0.511
    ##  5 Birmingham, AL     0.434    0.399    0.469
    ##  6 Boston, MA         0.505    0.465    0.545
    ##  7 Buffalo, NY        0.612    0.569    0.654
    ##  8 Charlotte, NC      0.300    0.266    0.336
    ##  9 Chicago, IL        0.736    0.724    0.747
    ## 10 Cincinnati, OH     0.445    0.408    0.483
    ## # … with 40 more rows
…
